{
    "app-id" : "com.gitlab.cunidev.Gestures",
    "runtime" : "org.gnome.Platform",
    "runtime-version" : "43",
    "sdk" : "org.gnome.Sdk",
    "command" : "gestures",
    "finish-args" : [
        "--share=ipc",
        "--socket=fallback-x11",
        "--socket=wayland",
        "--filesystem=xdg-config/libinput-gestures.conf:create",
        "--filesystem=xdg-config/libinput-gestures.conf.bak:create",
        "--talk-name=org.freedesktop.Flatpak"
    ],
    "cleanup" : [
        "/include",
        "/lib/pkgconfig",
        "/man",
        "/share/doc",
        "/share/gtk-doc",
        "/share/man",
        "/share/pkgconfig",
        "*.la",
        "*.a"
    ],
    "modules" : [
        {
            "name" : "gestures",
            "builddir" : true,
            "buildsystem" : "meson",
            "sources" : [
                {
                    "type" : "git",
                    "url" : "https://gitlab.com/cunidev/gestures",
                    "tag": "0.3.1",
                }
            ]
        }
    ]
}
